<?xml version="1.0" standalone="no"?>
<!DOCTYPE svg PUBLIC "-//W3C//DTD SVG 1.1//EN" "http://www.w3.org/Graphics/SVG/1.1/DTD/svg11.dtd" >
<svg xmlns="http://www.w3.org/2000/svg">
<metadata>Generated by IcoMoon</metadata>
<defs>
<font id="qanvast" horiz-adv-x="512">
<font-face units-per-em="512" ascent="480" descent="-32" />
<missing-glyph horiz-adv-x="512" />
<glyph unicode="&#x20;" d="" horiz-adv-x="256" />
<glyph unicode="&#xe600;" d="M657.141 149.274l-12.692-14.771c-25.466 3.137-47.641 12.743-66.488 28.815-20.804 1.887-37.572 10.17-50.264 24.839-12.712 14.67-19.068 31.337-19.068 49.992 0 21.309 7.426 39.186 22.256 53.655 14.831 14.457 33.173 21.692 55.047 21.692 21.975 0 40.418-7.173 55.288-21.541 14.871-14.357 22.297-32.154 22.297-53.392 0-17.464-5.731-33.536-17.212-48.206s-28.755-23.69-51.798-27.039c16.828-11.461 32.125-17.182 45.865-17.182 4.742 0 9.544 1.776 14.347 5.337l2.422-2.199zM585.509 173.801c18.080 0 33.557 6.305 46.431 18.918 12.894 12.611 19.331 27.826 19.331 45.633 0 18.1-6.296 33.395-18.908 45.905-12.591 12.5-28.008 18.756-46.229 18.756-18.080 0-33.476-6.306-46.188-18.918-12.692-12.611-19.048-27.856-19.048-45.745 0-17.808 6.275-33.022 18.846-45.634s27.827-18.917 45.764-18.917z" horiz-adv-x="2048" />
<glyph unicode="&#xe601;" d="M824.279 312.659l67.698-147.453h-11.885l-23.165 50.618h-71.593l-23.083-50.618h-11.865l67.678 147.453h6.215zM852.61 225.256l-31.539 68.96-31.438-68.959h62.977z" horiz-adv-x="2048" />
<glyph unicode="&#xe602;" d="M1116.525 311.61v-146.404h-9.303l-111.304 127.961v-127.961h-11.32v146.404h9.585l111.042-127.961v127.961h11.3z" horiz-adv-x="2048" />
<glyph unicode="&#xe603;" d="M1368.755 310.459l-65.499-147.141h-28.916l-64.248 147.141h45.582l33.234-83.841 34.162 83.841h45.684z" horiz-adv-x="2048" />
<glyph unicode="&#xe604;" d="M1607.889 165.205h-44.857l-11.824 29.45h-63.098l-12.046-29.45h-44.857l64.248 145.254h48.408l64.026-145.254zM1541.139 219.909l-21.268 53.029-21.489-53.029h42.757z" horiz-adv-x="2048" />
<glyph unicode="&#xe605;" d="M1803.841 207.438c0-9.081-2.321-16.94-6.961-23.578s-11.139-11.724-19.451-15.245c-8.313-3.531-17.838-5.297-28.593-5.297-3.006 0-6.699 0.192-11.057 0.575-4.379 0.384-10.169 1.453-17.394 3.199-7.244 1.745-14.771 4.329-22.6 7.759v35.625c7.345-4.54 14.549-8.313 21.651-11.31 7.082-3.007 14.69-4.51 22.782-4.51 7.486 0 12.329 1.241 14.528 3.723 2.199 2.471 3.289 4.803 3.289 6.962 0 3.914-1.877 7.214-5.649 9.908s-9.262 5.468-16.466 8.334c-7.95 3.35-14.953 7.002-20.945 10.947-6.014 3.955-10.917 8.888-14.73 14.831s-5.71 12.965-5.71 21.066c0 7.82 1.917 14.902 5.771 21.217 3.834 6.326 9.706 11.37 17.596 15.144s17.534 5.66 28.936 5.66c8.091 0 15.599-0.787 22.479-2.362 6.88-1.563 12.551-3.329 17.031-5.286 4.459-1.958 7.546-3.491 9.222-4.611v-34.061c-5.953 4.257-12.571 8.072-19.876 11.421-7.284 3.359-15.093 5.035-23.408 5.035-5.448 0-9.403-1.049-11.844-3.148s-3.672-4.681-3.672-7.759c0-2.856 1.231-5.337 3.672-7.436s6.8-4.651 13.095-7.647c11.179-5.247 20.118-9.959 26.838-14.156 6.699-4.186 11.946-9.030 15.759-14.508 3.813-5.487 5.709-12.318 5.709-20.491z" horiz-adv-x="2048" />
<glyph unicode="&#xe606;" d="M2048 275.137h-53.23v-109.931h-43.706v109.932h-53.23v35.322h150.167v-35.322z" horiz-adv-x="2048" />
<glyph unicode="&#xe607;" d="M366 309.301l-87.37 111.755-138.24 34.52-140.389-182.74v-200.882l137.007-79.531 228.993 130.218v186.659zM149.297 433.961l109.587-27.351-123.214-178.811-109.628 45.814 123.254 160.348zM18.666 83.010v172.195l109.334-45.609v-189.567l-109.334 62.981zM347.334 133.795l-200.333-113.92v193.113l126.083 183.486 74.25-93.859v-168.82z" horiz-adv-x="2048" />
<glyph unicode="&#xe608;" d="M0 480h768v-256h-768v256z" horiz-adv-x="768" />
<glyph unicode="&#xe609;" d="M0 224h768v-256h-768v256z" horiz-adv-x="768" />
<glyph unicode="&#xe60a;" d="M263.409 352c0-53.166-43.1-96.267-96.267-96.267s-96.266 43.1-96.266 96.267c0 53.166 43.1 96.267 96.266 96.267s96.267-43.1 96.267-96.267z" horiz-adv-x="768" />
<glyph unicode="&#xe60b;" d="M293.659 352c0-50.244-40.731-90.975-90.975-90.975s-90.975 40.731-90.975 90.975c0 0 0 0 0 0 0 50.244 40.731 90.975 90.975 90.975s90.975-40.731 90.975-90.975c0 0 0 0 0 0z" horiz-adv-x="768" />
<glyph unicode="&#xe60c;" d="M179.057 349.678l-13.078 10.032-13.074-10.037 5.034 16.177-13.119 9.972 16.189-0.034 4.966 16.199 4.971-16.198 16.188 0.040-13.115-9.977 5.038-16.175z" horiz-adv-x="768" />
<glyph unicode="&#xe60d;" d="M281.668 349.678l-13.077 10.032-13.074-10.037 5.034 16.177-13.119 9.972 16.189-0.034 4.966 16.199 4.971-16.198 16.188 0.040-13.115-9.977 5.038-16.175z" horiz-adv-x="768" />
<glyph unicode="&#xe60e;" d="M230.415 387.76l-13.078 10.032-13.074-10.037 5.034 16.177-13.119 9.972 16.189-0.034 4.966 16.199 4.971-16.198 16.188 0.040-13.115-9.977 5.038-16.175z" horiz-adv-x="768" />
<glyph unicode="&#xe60f;" d="M198.257 288.745l-13.077 10.032-13.074-10.037 5.034 16.177-13.119 9.972 16.189-0.035 4.966 16.2 4.971-16.198 16.188 0.040-13.115-9.976 5.038-16.175z" horiz-adv-x="768" />
<glyph unicode="&#xe610;" d="M262.468 288.745l-13.077 10.032-13.074-10.037 5.034 16.177-13.119 9.972 16.189-0.035 4.966 16.2 4.971-16.198 16.188 0.040-13.115-9.976 5.038-16.175z" horiz-adv-x="768" />
</font></defs></svg>